{
    "fluentMethods": true,
    "relationships": [],
    "fields": [
        {
            "fieldName": "tipoDispositivo",
            "fieldType": "String"
        },
        {
            "fieldName": "produttoreNome",
            "fieldType": "String"
        },
        {
            "fieldName": "giacenzaMinima",
            "fieldType": "Integer"
        },
        {
            "fieldName": "alertRiordino",
            "fieldType": "Integer"
        },
        {
            "fieldName": "quantitaUltimoRiordino",
            "fieldType": "Integer"
        },
        {
            "fieldName": "notificationSend",
            "fieldType": "Boolean"
        }
    ],
    "changelogDate": "20180403093633",
    "dto": "mapstruct",
    "service": "serviceClass",
    "entityTableName": "anagrafica_giacenza",
    "jpaMetamodelFiltering": false,
    "pagination": "no",
    "microserviceName": "faiefservice",
    "searchEngine": false
}
