{
    "fluentMethods": true,
    "relationships": [
        {
            "relationshipType": "one-to-many",
            "relationshipName": "tipoServizio",
            "otherEntityName": "tipoServizio",
            "otherEntityRelationshipName": "categoriaServizio"
        }
    ],
    "fields": [
        {
            "fieldName": "nome",
            "fieldType": "String",
            "fieldValidateRules": [
                "required"
            ]
        },
        {
            "fieldName": "nomeBusiness",
            "fieldType": "String"
        },
        {
            "fieldName": "descrizione",
            "fieldType": "String"
        },
        {
            "fieldName": "testoPromo",
            "fieldType": "String"
        },
        {
            "fieldName": "ordinamento",
            "fieldType": "Long"
        },
        {
            "fieldName": "disabilitato",
            "fieldType": "Boolean",
            "fieldValidateRules": [
                "required"
            ]
        }
    ],
    "changelogDate": "20171113151435",
    "entityTableName": "categoria_servizio",
    "dto": "mapstruct",
    "pagination": "no",
    "service": "serviceImpl",
    "microserviceName": "faiefservice"
}