{
    "fluentMethods": true,
    "relationships": [
        {
            "relationshipName": "tipoDispositivo",
            "otherEntityName": "tipoDispositivo",
            "relationshipType": "many-to-one",
            "otherEntityField": "nome"
        },
        {
            "relationshipName": "tipoServizio",
            "otherEntityName": "tipoServizio",
            "relationshipType": "many-to-one",
            "otherEntityField": "nome"
        }
    ],
    "fields": [
        {
            "fieldName": "modalitaGestione",
            "fieldType": "ModalitaGestione",
            "fieldValues": "DA_REMOTO,OFFLINE",
            "fieldValidateRules": [
                "required"
            ]
        }
    ],
    "changelogDate": "20180309154239",
    "dto": "no",
    "service": "serviceImpl",
    "entityTableName": "configurazione_dispositivi_servizi",
    "jpaMetamodelFiltering": true,
    "pagination": "pager",
    "microserviceName": "faiefservice",
    "searchEngine": false
}
