{
    "fluentMethods": true,
    "relationships": [
        {
            "relationshipName": "richiesta",
            "otherEntityName": "richiesta",
            "relationshipType": "one-to-many",
            "otherEntityRelationshipName": "raggruppamentoRichiesteOrdineFornitore"
        },
        {
            "relationshipName": "tipoDispositivo",
            "otherEntityName": "tipoDispositivo",
            "relationshipType": "many-to-one",
            "otherEntityField": "nome"
        }
    ],
    "fields": [
        {
            "fieldName": "nomeFileRicevuto",
            "fieldType": "String"
        },
        {
            "fieldName": "dataGenerazioneFile",
            "fieldType": "Instant"
        },
        {
            "fieldName": "dataUltimaAcquisizione",
            "fieldType": "Instant"
        }
    ],
    "changelogDate": "20180418125015",
    "dto": "mapstruct",
    "service": "serviceClass",
    "entityTableName": "group_richieste_ordini",
    "jpaMetamodelFiltering": false,
    "pagination": "no",
    "microserviceName": "faiefservice",
    "searchEngine": false
}
