{
    "fluentMethods": true,
    "relationships": [
        {
            "relationshipType": "one-to-one",
            "relationshipName": "dispositivo",
            "otherEntityName": "dispositivo",
            "otherEntityField": "seriale",
            "ownerSide": true,
            "otherEntityRelationshipName": "viaT"
        }
    ],
    "fields": [
        {
            "fieldName": "tracce1",
            "fieldType": "Long"
        },
        {
            "fieldName": "tracce2",
            "fieldType": "Long"
        },
        {
            "fieldName": "tracce3",
            "fieldType": "Long"
        }
    ],
    "changelogDate": "20171107140344",
    "entityTableName": "via_t",
    "dto": "mapstruct",
    "pagination": "no",
    "service": "serviceImpl",
    "jpaMetamodelFiltering": false,
    "microserviceName": "faiefservice"
}
